-----BEGIN PGP SIGNATURE-----

iQGzBAABCgAdFiEEgCqXmQFhEjRuH+/0egKeVN1dznoFAmca0ZoACgkQegKeVN1d
znpnTAv/aYu6J/PwgvBFDqKPg4E+YYPWv1HOJePWq3Nj412I0xG/ux+ExEKfBEYM
LUYe1RDvGfP1oEgAacqNNkyuofPEUwmUhq1RFm0GuqMfWW2wU40HcVwzgXqgUwHH
axy/kWKfPQJb0mF7VrMc/424HJEj5dTOby91Td66TpjDIcRYVrJgqQfDSO88otqJ
szgAEj7UkBRTM4Ut+IZ6CDYdrAslj3YNjzFY17b10MsZo1/s/yJ5CWlqR7uJCU6s
PXptgcFoWuT+rA1xgGJ3mBUJ95HGaps5RpAarV+h733VxVZF0rAsa4MuVgWRP1ra
ZRygQubK9nszLahrC+bCyj3f74PoFYgNHZJSu8PALrQsUkGs22Ebxl4A3Jj56v13
KRlMqcI45U7woJAOt6Gu/lvYtllSiMvLgPY0jpJgzEharhz8B2MCP/vG4G1IcOMJ
6UZRj5KDsPaw+4VREI7fiEML8p7fulu4OzvAv2tcwzLgsTcap2OhH/L848KVSxi/
zw9Tmi9d
=FJBD
-----END PGP SIGNATURE-----
